{
  "states": [
    "intent_goodbye",
    "intent_greet",
    "intent_mood_affirm",
    "intent_mood_deny",
    "intent_mood_great",
    "intent_mood_unhappy",
    "intent_query_groundnuts_season",
    "intent_query_groundnuts_temperature",
    "intent_query_groundnuts_water",
    "intent_query_maize_season",
    "intent_query_maize_soil",
    "intent_query_maize_water",
    "intent_query_rice_season",
    "intent_query_rice_soil",
    "intent_query_rice_varieties",
    "intent_query_rice_yields",
    "intent_query_wheat",
    "prev_action_listen",
    "prev_action_restart",
    "prev_action_default_fallback",
    "prev_action_deactivate_form",
    "prev_action_revert_fallback_events",
    "prev_action_default_ask_affirmation",
    "prev_action_default_ask_rephrase",
    "prev_action_back",
    "prev_utter_greet",
    "prev_utter_cheer_up",
    "prev_utter_did_that_help",
    "prev_utter_happy",
    "prev_utter_goodbye",
    "prev_utter_wheat",
    "prev_utter_rice_soil",
    "prev_utter_rice_season",
    "prev_utter_rice_varieties",
    "prev_utter_rice_yields",
    "prev_utter_groundnuts_season",
    "prev_utter_groundnuts_temperature",
    "prev_utter_groundnuts_water",
    "prev_utter_maize_soil",
    "prev_utter_maize_season",
    "prev_utter_maize_water"
  ]
}